<?xml version="1.0" encoding="UTF-8"?>
<session version="1.0">
<refactoring accessors="true" comment="Delete element from project &apos;test&apos;&#x0D;&#x0A;- Original project: &apos;test&apos;&#x0D;&#x0A;- Original element: &apos;test1.hola.java&apos;" description="Delete element" element1="/src&lt;test1{hola.java" elements="1" flags="589830" id="org.eclipse.jdt.ui.delete" resources="0" stamp="1665054722554" subPackages="false" version="1.0"/>
</session>